{
    "00AK": {
        "icao": "00AK",
        "iata": "",
        "name": "Lowell Field",
        "city": "Anchor Point",
        "state": "Alaska",
        "country": "US",
        "elevation": 450,
        "lat": 59.94919968,
        "lon": -151.695999146,
        "tz": "America\/Anchorage"
    },
    "00AL": {
        "icao": "00AL",
        "iata": "",
        "name": "Epps Airpark",
        "city": "Harvest",
        "state": "Alabama",
        "country": "US",
        "elevation": 820,
        "lat": 34.8647994995,
        "lon": -86.7703018188,
        "tz": "America\/Chicago"
    },
    "00AZ": {
        "icao": "00AZ",
        "iata": "",
        "name": "Cordes Airport",
        "city": "Cordes",
        "state": "Arizona",
        "country": "US",
        "elevation": 3810,
        "lat": 34.3055992126,
        "lon": -112.1650009155,
        "tz": "America\/Phoenix"
    }
}