{"photos": [
    {"file": "photos/DSC01049.JPG", "title": "City View"},
    {"file": "photos/DSC01066.JPG", "title": "Ferris Wheel"},
    {"file": "photos/DSC02511.JPG", "title": "A building in the forbidden city with extra long text"},
    {"file": "photos/DSC03810.JPG", "title": "City from Mt Gravatt Lookout"},
    {"file": "photos/DSC05750.JPG", "title": "Sun Rise"}
  ]
}